<svg id="insurance" xmlns="http://www.w3.org/2000/svg" viewBox="0 0 58.374 68.548">
  <defs>
    <style>
      .cls-1 {
        fill: #9ae6f7;
      }

      .cls-2 {
        fill: #2fc0f0;
      }

      .cls-3 {
        fill: #fff;
      }

      .cls-4 {
        fill: #e1ebf0;
      }

      .cls-5 {
        fill: #00dd80;
      }

      .cls-6 {
        fill: #00aa63;
      }
    </style>
  </defs>
  <path id="Path_102" data-name="Path 102" class="cls-1" d="M55.79,45.776a34.583,34.583,0,0,1-8.283,12.9A43.356,43.356,0,0,1,31.32,68.27a4.953,4.953,0,0,1-1.573.278h-.059a5.022,5.022,0,0,1-.965-.1,5.229,5.229,0,0,1-.664-.181,43.353,43.353,0,0,1-16.207-9.586,34.518,34.518,0,0,1-8.281-12.9C.225,36.706.415,26.7.569,18.668l0-.123c.031-.664.051-1.361.062-2.131A7.265,7.265,0,0,1,7.474,9.3c7.881-.44,13.978-3.01,19.187-8.088l.046-.042a4.391,4.391,0,0,1,5.961,0l.044.042C37.923,6.286,44.02,8.857,51.9,9.3a7.265,7.265,0,0,1,6.841,7.117c.011.775.031,1.471.062,2.131l0,.052C58.958,26.649,59.148,36.67,55.79,45.776Zm0,0" transform="translate(-0.5 0)"/>
  <path id="Path_103" data-name="Path 103" class="cls-2" d="M244.993,45.779a34.584,34.584,0,0,1-8.283,12.9,43.356,43.356,0,0,1-16.188,9.591,4.953,4.953,0,0,1-1.573.278V0a4.4,4.4,0,0,1,2.922,1.166l.044.042C227.126,6.29,233.223,8.86,241.1,9.3a7.265,7.265,0,0,1,6.841,7.117c.011.775.031,1.471.062,2.131l0,.052C248.161,26.652,248.35,36.673,244.993,45.779Zm0,0" transform="translate(-189.703 -0.003)"/>
  <path id="Path_104" data-name="Path 104" class="cls-3" d="M150.809,180.847a2.6,2.6,0,0,1-2.6,2.6H128.655a2.6,2.6,0,0,1-2.6-2.6v-14.24a2.59,2.59,0,0,1,.8-1.873l9.863-8.92.044-.039.045-.037a2.584,2.584,0,0,1,3.253,0l.09.076L150,164.725a2.611,2.611,0,0,1,.794,1.614l.01.1,0,4.432Zm0,0" transform="translate(-109.245 -134.389)"/>
  <path id="Path_105" data-name="Path 105" class="cls-4" d="M231.27,180.852a2.6,2.6,0,0,1-2.6,2.6h-9.719V155.168a2.579,2.579,0,0,1,1.566.575l.09.076,9.852,8.911a2.611,2.611,0,0,1,.794,1.614l.01.1,0,4.432Zm0,0" transform="translate(-189.706 -134.394)"/>
  <path id="Path_106" data-name="Path 106" class="cls-5" d="M121.7,172.425a2.008,2.008,0,0,1-2.84.142L117,170.876l-12.315-11.135-.06-.055L92.244,170.879l-1.867,1.688a2.011,2.011,0,1,1-2.7-2.982l5.362-4.85,9.863-8.92.044-.039.045-.037a2.584,2.584,0,0,1,3.253,0l.09.076,9.852,8.911,5.373,4.86A2.01,2.01,0,0,1,121.7,172.425Zm0,0" transform="translate(-75.434 -134.389)"/>
  <path id="Path_107" data-name="Path 107" class="cls-6" d="M235.976,172.43a2.008,2.008,0,0,1-2.84.142l-1.869-1.691-12.315-11.135v-4.579a2.579,2.579,0,0,1,1.566.575l.09.076,9.852,8.911,5.373,4.86A2.01,2.01,0,0,1,235.976,172.43Zm0,0" transform="translate(-189.706 -134.394)"/>
</svg>
